…
``` r
boot_sample = function(df){
  sample_frac(df, replace = TRUE)
}

boot_straps=
  tibble(strap_number = 1:5000)|>
  mutate(
    strap_sample = map(strap_number, \(i) boot_sample(df = weather_df))
  )

boot_straps
```

    ## # A tibble: 5,000 × 2
    ##    strap_number strap_sample          
    ##           <int> <list>                
    ##  1            1 <spc_tbl_ [2,190 × 6]>
    ##  2            2 <spc_tbl_ [2,190 × 6]>
    ##  3            3 <spc_tbl_ [2,190 × 6]>
    ##  4            4 <spc_tbl_ [2,190 × 6]>
    ##  5            5 <spc_tbl_ [2,190 × 6]>
    ##  6            6 <spc_tbl_ [2,190 × 6]>
    ##  7            7 <spc_tbl_ [2,190 × 6]>
    ##  8            8 <spc_tbl_ [2,190 × 6]>
    ##  9            9 <spc_tbl_ [2,190 × 6]>
    ## 10           10 <spc_tbl_ [2,190 × 6]>
    ## # ℹ 4,990 more rows
…
This code chunk compares my model(mod1) to mod2 and mod3.

``` r
cv_df=
  crossv_mc(bwtidy_df, 100)

cv_df |>
  pull(train) |>
  nth(1)|>
  as_tibble()
```

    ## # A tibble: 3,473 × 20
    ##    babysex bhead blength   bwt delwt fincome frace gaweeks malform menarche
    ##    <chr>   <dbl>   <dbl> <dbl> <dbl>   <dbl> <chr>   <dbl> <chr>      <dbl>
    ##  1 female     34      51  3629   177      35 white    39.9 absent        13
    ##  2 female     36      50  3345   148      85 white    39.9 absent        12
    ##  3 male       34      52  3062   157      55 white    40   absent        14
    ##  4 female     34      52  3374   156       5 white    41.6 absent        13
    ##  5 male       33      52  3374   129      55 white    40.7 absent        12
    ##  6 female     33      46  2523   126      96 black    40.3 absent        14
    ##  7 female     33      49  2778   140       5 white    37.4 absent        12
    ##  8 male       36      52  3515   146      85 white    40.3 absent        11
    ##  9 male       33      50  3459   169      75 black    40.7 absent        12
    ## 10 female     35      51  3317   130      55 white    43.4 absent        13
    ## # ℹ 3,463 more rows
    ## # ℹ 10 more variables: mheight <dbl>, momage <dbl>, mrace <chr>, parity <dbl>,
    ## #   pnumlbw <dbl>, pnumsga <dbl>, ppbmi <dbl>, ppwt <dbl>, smoken <dbl>,
    ## #   wtgain <dbl>

``` r
cv_df |>
  pull(test) |>
  nth(1)|>
  as_tibble()
```

    ## # A tibble: 869 × 20
    ##    babysex bhead blength   bwt delwt fincome frace gaweeks malform menarche
    ##    <chr>   <dbl>   <dbl> <dbl> <dbl>   <dbl> <chr>   <dbl> <chr>      <dbl>
    ##  1 male       34      48  3062   156      65 black    25.9 absent        14
    ##  2 male       36      53  3629   147      75 white    41.3 absent        11
    ##  3 male       35      56  3232   147      55 white    42.1 absent        13
    ##  4 female     35      50  3175   140      85 black    40.6 absent        14
    ##  5 female     34      49  3118   161      45 black    38.9 absent        10
    ##  6 male       38      53  3799   167      75 white    39.9 absent        12
    ##  7 female     34      51  3175   142      96 white    42.3 absent        17
    ##  8 female     33      49  3147   140      45 white    40.6 absent        12
    ##  9 male       36      53  3203   140      55 black    39.7 absent        14
    ## 10 female     36      52  4224   178      35 white    41.6 absent        13
    ## # ℹ 859 more rows
    ## # ℹ 10 more variables: mheight <dbl>, momage <dbl>, mrace <chr>, parity <dbl>,
    ## #   pnumlbw <dbl>, pnumsga <dbl>, ppbmi <dbl>, ppwt <dbl>, smoken <dbl>,
    ## #   wtgain <dbl>
…
